Plugin versions:
 1  Nov 10 2014
 2  Nov 12 2014
 3  Nov 28 2014
 4  Jan 4  2015
 5  Feb 17 2015
 6  Apr 15 2015
 7  Aug 12 2015
 8  Sep 9  2015
 9  Oct 19 2015
10  Nov 15 2015
11  Jan 5  2016
12  Feb 14 2016
14  Apr 27 2016
15  Jul 19 2016
16  Mar 6  2017
17  Apr 4  2017
18  Jul 12 2017

First supported version by client:
 20
