/ Discord role are listed in level order
/ Exp is gain by chatting on discord,
/ more info here https://mee6.xyz/leaderboard/276059361502298115
1		Apana Slave
2		Piou
3		Maggot
4		Ratto
5		Candor Scorpion
6		House Maggot
7		Cave Maggot
8		Duck
9		Little Blob
10		Scorpion
11		Fluffy
12		Croc
13		Bat
14		Cave Snake
15		Giant Maggot
16		Forest Piou
17		Pinkie
18		Rudolph Slime
19		Red Scorpion
20		Saxso Ghost  
21		Moggun
22		Grass Snake
23		
24		Ocen Croc
25		Black Scorpion
26		Spiky Mushroom
27
28		Mana Piou
29
30		Snake
31		Red Mushroom
32
33
34		
35		Golden Scorpion
36		
37		Dark Lizard
38		Living Potato
39		Forest Mushroom
40		Mountain Snake
41		Skeleton
42		Night Scorpion
43		Yeti
44
45		Wicked Shroom
46
47
48		Fafi Dragon
49
50		Mouboo
51		Ceentaur
52
53
54
55		Moonsh
56
57
58
59
60
61
62
63		Wicked Shroom
64
65
66
67
68
69
70
71
72
73
74
75		Moonshrrom
76
77
78
79
80
81
82
83
84
85
86
87
88
89
90
91
92
93
94
95
96
97
98
99
100		Alpha Mouboo
101
102
103
104
105
106
107
108
109
110
111
112
113
114
115
116
117
118
119
120
121
122
123
124
125
126
127
128
129
130
131
132
133
134
135
136
137
138
139
140
141
142
143
144
145
146
147
148
149
150
151
152
153
154
155
156
157
158
159
160
161

